<?xml version="1.0" encoding="UTF-8"?>
<svg width="37px" height="37px" viewBox="0 0 37 37" version="1.1" xmlns="http://www.w3.org/2000/svg" xmlns:xlink="http://www.w3.org/1999/xlink">
    <!-- Generator: Sketch 48.2 (47327) - http://www.bohemiancoding.com/sketch -->
    <title>Group 5</title>
    <desc>Created with Sketch.</desc>
    <defs></defs>
    <g id="08a---Stories" stroke="none" stroke-width="1" fill="none" fill-rule="evenodd" transform="translate(-824.000000, -4062.000000)">
        <g id="Group-5" transform="translate(825.000000, 4063.000000)">
            <circle id="Oval-Copy-2" stroke="#FFFFFF" fill="#FFFFFF" cx="17.5" cy="17.5" r="17.5"></circle>
            <g id="Play" transform="translate(15.000000, 12.000000)" fill="#EB171A" fill-rule="nonzero">
                <path d="M7,5.99574834 C7,6.16908167 6.93,6.34241501 6.82,6.43574834 L0.62,11.902415 C0.55,11.9690817 0.48,11.9957483 0.4,11.9957483 C0.34,11.9957483 0.27,11.9690817 0.21,11.9290817 C0.08,11.8357483 0,11.662415 0,11.462415 L0,0.529081675 C0,0.329081675 0.08,0.155748342 0.21,0.0624150083 C0.34,-0.0309183251 0.5,-0.0175849917 0.62,0.0890816749 L6.82,5.55574834 C6.93,5.64908167 7,5.82241501 7,5.99574834 Z" id="Shape"></path>
            </g>
        </g>
    </g>
</svg>